Processor_Trinity_16bit_codes/Processor_Trinity_8bit.sim/sim_1/behav/xsim/processor_wave.vcd
$date
   Sat Mar 14 14:59:37 2026
$end

$version
  2025.2
  $dumpfile ("processor_wave.vcd") 
$end

$timescale
  1ps
$end

$scope module tb_processor $end
$var reg 1 ! clk $end
$var reg 1 " rst $end
$var wire 12 # debug_pc [11:0] $end
$var wire 16 $ debug_instr [15:0] $end
$var wire 1 % debug_halt $end
$var wire 1 & debug_zero_flag $end
$scope module dut $end
$var wire 1 ' clk $end
$var wire 1 ( rst $end
$var wire 12 # debug_pc [11:0] $end
$var wire 16 $ debug_instr [15:0] $end
$var wire 1 % debug_halt $end
$var wire 1 & debug_zero_flag $end
$var wire 12 ) pc [11:0] $end
$var wire 1 * branch_taken $end
$var wire 16 + instruction [15:0] $end
$var wire 4 , opcode [3:0] $end
$var wire 3 - rd_addr [2:0] $end
$var wire 3 . rs1_addr [2:0] $end
$var wire 3 / rs2_addr [2:0] $end
$var wire 12 0 jmp_target [11:0] $end
$var wire 9 1 imm9 [8:0] $end
$var wire 16 2 imm_sext [15:0] $end
$var wire 1 3 reg_write $end
$var wire 1 4 alu_src $end
$var wire 4 5 alu_op [3:0] $end
$var wire 1 6 mem_read $end
$var wire 1 7 mem_write $end
$var wire 1 8 mem_to_reg $end
$var wire 1 9 flag_write_cu $end
$var wire 1 : jump $end
$var wire 1 ; branch_z $end
$var wire 1 < branch_nz $end
$var wire 1 = halt $end
$var wire 16 > rs1_data [15:0] $end
$var wire 16 ? rs2_data [15:0] $end
$var wire 16 @ rd_data [15:0] $end
$var wire 16 A write_data [15:0] $end
$var wire 16 B alu_a [15:0] $end
$var wire 16 C alu_b [15:0] $end
$var wire 16 D alu_result [15:0] $end
$var wire 1 E alu_zero $end
$var wire 1 F alu_carry $end
$var wire 1 G alu_neg $end
$var wire 1 H alu_overflow $end
$var wire 1 I flag_zero $end
$var wire 1 J flag_carry $end
$var wire 1 K flag_neg $end
$var wire 1 L flag_overflow $end
$var wire 1 M flag_write_en $end
$var wire 16 N dmem_read_data [15:0] $end
$scope module u_pc $end
$var wire 1 ' clk $end
$var wire 1 ( rst $end
$var wire 1 = halt $end
$var wire 1 : jump $end
$var wire 1 * branch_taken $end
$var wire 12 0 jump_target [11:0] $end
$var reg 12 O pc [11:0] $end
$upscope $end
$scope module u_imem $end
$var wire 12 ) addr [11:0] $end
$var wire 16 + instruction [15:0] $end
$var integer 32 P i [31:0] $end
$upscope $end
$scope module u_cu $end
$var wire 4 , opcode [3:0] $end
$var reg 1 Q reg_write $end
$var reg 1 R alu_src $end
$var reg 4 S alu_op [3:0] $end
$var reg 1 T mem_read $end
$var reg 1 U mem_write $end
$var reg 1 V mem_to_reg $end
$var reg 1 W flag_write $end
$var reg 1 X jump $end
$var reg 1 Y branch_z $end
$var reg 1 Z branch_nz $end
$var reg 1 [ halt $end
$upscope $end
$scope module u_rf $end
$var wire 1 ' clk $end
$var wire 1 ( rst $end
$var wire 1 3 reg_write $end
$var wire 3 - rd_addr [2:0] $end
$var wire 16 A write_data [15:0] $end
$var wire 3 . rs1_addr [2:0] $end
$var wire 3 / rs2_addr [2:0] $end
$var wire 16 > rs1_data [15:0] $end
$var wire 16 ? rs2_data [15:0] $end
$var wire 16 @ rd_data [15:0] $end
$var integer 32 \ i [31:0] $end
$upscope $end
$scope module u_alu $end
$var wire 16 B A [15:0] $end
$var wire 16 C B [15:0] $end
$var wire 4 5 alu_op [3:0] $end
$var reg 16 ] result [15:0] $end
$var reg 1 ^ zero_flag $end
$var reg 1 _ carry_flag $end
$var reg 1 ` neg_flag $end
$var reg 1 a overflow_flag $end
$var reg 17 b wide_result [16:0] $end
$var reg 32 c mul_result [31:0] $end
$upscope $end
$scope module u_flags $end
$var wire 1 ' clk $end
$var wire 1 ( rst $end
$var wire 1 M flag_write $end
$var wire 1 E zero_in $end
$var wire 1 F carry_in $end
$var wire 1 G neg_in $end
$var wire 1 H overflow_in $end
$var reg 1 d zero $end
$var reg 1 e carry $end
$var reg 1 f neg $end
$var reg 1 g overflow $end
$upscope $end
$scope module u_dmem $end
$var wire 1 ' clk $end
$var wire 1 6 mem_read $end
$var wire 1 7 mem_write $end
$var wire 16 D addr [15:0] $end
$var wire 16 @ write_data [15:0] $end
$var wire 16 N read_data [15:0] $end
$var integer 32 h i [31:0] $end
$upscope $end
$upscope $end
$upscope $end
$enddefinitions $end

#0
$dumpvars
0!
1"
b0 #
b1000000000000101 $
0%
0&
0'
1(
b0 )
0*
b1000000000000101 +
b1000 ,
b0 -
b0 .
b0 /
b101 0
b101 1
b101 2
13
14
b1000 5
06
07
08
09
0:
0;
0<
0=
b0 >
b0 ?
b0 @
b101 A
b0 B
b101 C
b101 D
0E
0F
0G
0H
0I
0J
0K
0L
0M
b0 N
b0 O
b100000000 P
1Q
1R
b1000 S
0T
0U
0V
0W
0X
0Y
0Z
0[
bx \
b101 ]
0^
0_
0`
0a
b0 b
b0 c
0d
0e
0f
0g
b100000000 h
$end

#5000
1!
1'

#10000
0!
0'

#15000
1!
1'

#20000
0!
0"
0'
0(

#25000
1!
b1 #
b1000001000000011 $
1'
b1 )
b1000001000000011 +
b1 -
b1000000011 0
b11 1
b11 2
b101 >
b101 ?
b0 @
b11 A
b101 B
b11 C
b11 D
b1 O
b11 ]

#30000
0!
0'

#35000
1!
b10 #
b1000010000000010 $
1'
b10 )
b1000010000000010 +
b10 -
b10000000010 0
b10 1
b10 2
b0 @
b10 A
b10 C
b10 D
b10 O
b10 ]

#40000
0!
0'

#45000
1!
b11 #
b1000100000000001 $
1'
b11 )
b1000100000000001 +
b100 -
b100000000001 0
b1 1
b1 2
b0 @
b1 A
b1 C
b1 D
b11 O
b1 ]

#50000
0!
0'

#55000
1!
b100 #
b11000001000 $
1'
b100 )
b11000001000 +
b0 ,
b11 -
b1 /
b11000001000 0
b1000 1
b1000 2
04
b0 5
b11 ?
b0 @
b1000 A
b11 C
b1000 D
1M
b100 O
1Q
0R
b0 S
b1000 ]
b1000 b

#60000
0!
0'

#65000
1!
b101 #
b10011011010000 $
1'
b101 )
b10011011010000 +
b10 ,
b11 .
b10 /
b11011010000 0
b11010000 1
b11010000 2
b10 5
b1000 >
b10 ?
b1000 @
b10000 A
b1000 B
b10 C
b10000 D
b101 O
1Q
b10 S
b10000 ]
b0 b
b10000 c

#70000
0!
0'

#75000
1!
b110 #
b1011011100000 $
1'
b110 )
b1011011100000 +
b1 ,
b100 /
b11011100000 0
b11100000 1
b11100000 2
b1 5
b10000 >
b1 ?
b10000 @
b1111 A
b10000 B
b1 C
b1111 D
b110 O
1Q
b1 S
b1111 ]
b1111 b
b0 c

#80000
0!
0'

#85000
1!
b111 #
b1111000000000000 $
1%
1'
b111 )
b1111000000000000 +
b1111 ,
b0 -
b0 .
b0 /
b0 0
b0 1
b0 2
03
b1111 5
1=
b101 >
b101 ?
b101 @
b0 A
b101 B
b101 C
b0 D
1E
0M
b111 O
0Q
b1111 S
1[
b0 ]
1^
b0 b

